[
  {
    "id": "60a178bdae5f012e6d3ae912",
    "title": "elit ea elit minim reprehenderit",
    "content": "<p>Proident voluptate ad commodo ea velit eu nulla velit est.</p><p>Eiusmod pariatur anim ullamco enim consectetur est incididunt.</p><p>Do duis ex cupidatat consectetur anim consectetur culpa nisi irure voluptate consequat.</p>",
    "isSpecial": true,
    "dateCreated": "2014-07-11T03:56:26 -03:00",
    "categories": [
      {
        "id": "60a178bdca6d97483c9111f7",
        "name": "pariatur"
      },
      {
        "id": "60a178bd088c25b07879524e",
        "name": "cupidatat"
      },
      {
        "id": "60a178bd46d21f8bb4c7fd1e",
        "name": "exercitation"
      },
      {
        "id": "60a178bd5cf888f40de4598d",
        "name": "sint"
      },
      {
        "id": "60a178bdb4d9774ac61f7721",
        "name": "laboris"
      },
      {
        "id": "60a178bd32c83973ea1985b7",
        "name": "consectetur"
      },
      {
        "id": "60a178bd4f0c3a558d9fe94d",
        "name": "officia"
      }
    ],
    "link": null,
    "photo": "https://picsum.photos/500/500/?blur=2",
    "author": "Harriet Brooks"
  },
  {
    "id": "60a178bd21a50b295dd67414",
    "title": "eu ullamco laborum anim elit",
    "content": "<p>Voluptate in eiusmod laborum minim magna est ut incididunt quis cupidatat cillum minim occaecat fugiat.</p><p>Nisi culpa sunt sunt elit esse.</p><p>Deserunt nulla ut enim ex.</p>",
    "isSpecial": true,
    "dateCreated": "2019-06-28T04:24:25 -03:00",
    "categories": [
      {
        "id": "60a178bdba11d14c0479f66a",
        "name": "voluptate"
      },
      {
        "id": "60a178bdb88d44b819e668ce",
        "name": "excepteur"
      },
      {
        "id": "60a178bd08d69539837bc824",
        "name": "anim"
      },
      {
        "id": "60a178bd1175196114a4fa9a",
        "name": "enim"
      },
      {
        "id": "60a178bdb7540372b96f819a",
        "name": "laborum"
      },
      {
        "id": "60a178bd3f4f5ea1e8bbed85",
        "name": "veniam"
      },
      {
        "id": "60a178bdb8f71ac3edf2d795",
        "name": "nostrud"
      }
    ],
    "link": "https://google.com/",
    "photo": null,
    "author": "Willis Simmons"
  },
  {
    "id": "60a178bdb6b51a0338774f9b",
    "title": "cillum duis sit tempor ipsum",
    "content": "<p>Ad consequat commodo reprehenderit fugiat et.</p><p>Veniam minim laborum laborum magna Lorem proident esse et fugiat qui deserunt ullamco culpa.</p><p>Sit anim laborum occaecat laborum ut amet sunt commodo quis ex eu officia.</p>",
    "isSpecial": false,
    "dateCreated": "2019-11-10T11:12:10 -02:00",
    "categories": [
      {
        "id": "60a178bdd4e22a1af1853e27",
        "name": "deserunt"
      },
      {
        "id": "60a178bdedb6b0a17d7cf425",
        "name": "sit"
      },
      {
        "id": "60a178bd55c8b9b6a16b4a67",
        "name": "deserunt"
      },
      {
        "id": "60a178bd6b12cbad713421b4",
        "name": "voluptate"
      },
      {
        "id": "60a178bd293f0ee0610d837c",
        "name": "fugiat"
      },
      {
        "id": "60a178bd424389b3097c3b77",
        "name": "et"
      },
      {
        "id": "60a178bdbfba9b3417b95a66",
        "name": "aliquip"
      }
    ],
    "link": null,
    "photo": "https://picsum.photos/500/500/?blur=2",
    "author": "Vargas Cote"
  },
  {
    "id": "60a178bd9fbc81f8f008b91c",
    "title": "est nisi irure culpa pariatur",
    "content": "<p>Excepteur sunt ex magna irure enim aliqua proident nulla duis fugiat est labore.</p><p>Sunt eiusmod pariatur enim incididunt elit non sit.</p><p>Reprehenderit proident Lorem culpa excepteur id.</p>",
    "isSpecial": true,
    "dateCreated": "2014-12-09T01:08:27 -02:00",
    "categories": [
      {
        "id": "60a178bdceb84dc4286d3756",
        "name": "do"
      },
      {
        "id": "60a178bddd42089c8b56f608",
        "name": "ex"
      },
      {
        "id": "60a178bd07f321a7a6d3a27f",
        "name": "excepteur"
      },
      {
        "id": "60a178bd43322954e46e1b76",
        "name": "cillum"
      },
      {
        "id": "60a178bd1e54d0b3c7cd268d",
        "name": "aute"
      },
      {
        "id": "60a178bd849fe7280d1e8133",
        "name": "qui"
      },
      {
        "id": "60a178bde753b4ee918f5abf",
        "name": "ut"
      }
    ],
    "link": "https://google.com/",
    "photo": null,
    "author": "Gretchen Riley"
  },
  {
    "id": "60a178bded1e934e8518807c",
    "title": "commodo in in in eu",
    "content": "<p>Quis ipsum enim adipisicing consequat.</p><p>Esse cupidatat ipsum fugiat cupidatat aliquip voluptate sit Lorem ullamco consequat ipsum voluptate magna.</p><p>Do qui et commodo anim enim cupidatat minim id.</p>",
    "isSpecial": true,
    "dateCreated": "2019-12-25T02:35:46 -02:00",
    "categories": [
      {
        "id": "60a178bdab2f028c6ba411a7",
        "name": "duis"
      },
      {
        "id": "60a178bd709b8758a54b2693",
        "name": "eu"
      },
      {
        "id": "60a178bdf098624ae147d7d9",
        "name": "aute"
      },
      {
        "id": "60a178bda54ff7d4f2e5290c",
        "name": "consequat"
      },
      {
        "id": "60a178bdd83680eb22943ab3",
        "name": "laboris"
      },
      {
        "id": "60a178bd5f823357bdcd407e",
        "name": "velit"
      },
      {
        "id": "60a178bd83c7db61c6d4b35d",
        "name": "qui"
      }
    ],
    "link": "https://google.com/",
    "photo": "https://picsum.photos/500/500/?blur=2",
    "author": "Floyd Padilla"
  },
  {
    "id": "60a178bd9046485ccece63e5",
    "title": "incididunt in duis ut tempor",
    "content": "<p>Exercitation consequat excepteur duis cupidatat do ea eu in esse in qui quis id.</p><p>Ullamco dolore aliqua ad consequat eiusmod Lorem cupidatat velit amet cupidatat minim nulla consequat nulla.</p><p>Ut excepteur velit tempor pariatur enim occaecat ad consequat.</p>",
    "isSpecial": true,
    "dateCreated": "2020-11-30T07:04:28 -02:00",
    "categories": [
      {
        "id": "60a178bde41cc14ca76fd668",
        "name": "culpa"
      },
      {
        "id": "60a178bde8e5ecf3c7d195e9",
        "name": "cupidatat"
      },
      {
        "id": "60a178bdc6816e97b8caf8d3",
        "name": "irure"
      },
      {
        "id": "60a178bdee5b278fb7792ca5",
        "name": "culpa"
      },
      {
        "id": "60a178bd3630f2a08233415c",
        "name": "occaecat"
      },
      {
        "id": "60a178bd98498a49ec4f1501",
        "name": "ex"
      },
      {
        "id": "60a178bd454d5c81826bf021",
        "name": "sint"
      }
    ],
    "link": "https://google.com/",
    "photo": null,
    "author": "Nora Koch"
  },
  {
    "id": "60a178bd4964d15404366803",
    "title": "culpa eu amet aliquip duis",
    "content": "<p>Proident consequat sint minim ex laborum nostrud.</p><p>Do sint quis id quis sunt laboris magna cupidatat ex.</p><p>Minim consectetur consectetur esse labore aliqua est incididunt.</p>",
    "isSpecial": false,
    "dateCreated": "2019-03-20T09:20:30 -02:00",
    "categories": [
      {
        "id": "60a178bd01e2adcdd696afce",
        "name": "dolore"
      },
      {
        "id": "60a178bd2e91d3eccd03e002",
        "name": "Lorem"
      },
      {
        "id": "60a178bd3ce1eb8830284992",
        "name": "magna"
      },
      {
        "id": "60a178bdb5d3647e0a3daae9",
        "name": "ut"
      },
      {
        "id": "60a178bd85ae244e7e00c9f4",
        "name": "Lorem"
      },
      {
        "id": "60a178bd6c21d8cabde44d83",
        "name": "do"
      },
      {
        "id": "60a178bd1afa6147253009d2",
        "name": "pariatur"
      }
    ],
    "link": "https://google.com/",
    "photo": "https://picsum.photos/500/500/?blur=2",
    "author": "Fran Rivera"
  },
  {
    "id": "60a178bd76ea07e04a888284",
    "title": "consectetur do elit culpa labore",
    "content": "<p>Sunt eiusmod ad consectetur ea tempor cupidatat quis tempor occaecat Lorem.</p><p>Ipsum reprehenderit excepteur quis quis commodo ipsum occaecat.</p><p>Ullamco esse dolor labore cillum commodo enim dolor proident labore mollit ad minim dolor pariatur.</p>",
    "isSpecial": false,
    "dateCreated": "2016-01-12T07:41:31 -02:00",
    "categories": [
      {
        "id": "60a178bd71c001588cbcf615",
        "name": "irure"
      },
      {
        "id": "60a178bd854edf58d296ce81",
        "name": "ut"
      },
      {
        "id": "60a178bdcad96fdb87a82c73",
        "name": "cupidatat"
      },
      {
        "id": "60a178bd39b3e73d2b208edf",
        "name": "esse"
      },
      {
        "id": "60a178bd3a9f782cf050f2da",
        "name": "cupidatat"
      },
      {
        "id": "60a178bddcbed805b870ca04",
        "name": "esse"
      },
      {
        "id": "60a178bde7365c92708e79c0",
        "name": "culpa"
      }
    ],
    "link": "https://google.com/",
    "photo": null,
    "author": "Lang Flowers"
  },
  {
    "id": "60a178bde4a20646c2ebe1c8",
    "title": "ea ex nostrud voluptate mollit",
    "content": "<p>Irure commodo aliquip occaecat et incididunt non est adipisicing labore amet nisi sit consectetur.</p><p>Commodo ex commodo magna voluptate veniam adipisicing est duis.</p><p>Est labore tempor do sit elit.</p>",
    "isSpecial": true,
    "dateCreated": "2017-01-11T02:42:57 -02:00",
    "categories": [
      {
        "id": "60a178bd6657fad0a983b32f",
        "name": "consectetur"
      },
      {
        "id": "60a178bd9fd4cd4d7c5a862d",
        "name": "enim"
      },
      {
        "id": "60a178bda188ea988ad325d7",
        "name": "commodo"
      },
      {
        "id": "60a178bd9304433bc1be9a2e",
        "name": "magna"
      },
      {
        "id": "60a178bd31e8dfb4d1a19737",
        "name": "proident"
      },
      {
        "id": "60a178bde41f01c972cc9b99",
        "name": "cupidatat"
      },
      {
        "id": "60a178bd5a489088ac6e40da",
        "name": "sunt"
      }
    ],
    "link": null,
    "photo": null,
    "author": "Gina Bradley"
  },
  {
    "id": "60a178bd3f8a23071b7bccfd",
    "title": "ad enim ad pariatur pariatur",
    "content": "<p>Minim ut in cupidatat reprehenderit pariatur non esse ut fugiat commodo anim.</p><p>Proident culpa eu tempor duis voluptate.</p><p>Minim excepteur laboris laborum do ut esse pariatur Lorem consequat.</p>",
    "isSpecial": true,
    "dateCreated": "2020-11-03T06:03:46 -02:00",
    "categories": [
      {
        "id": "60a178bdd975af98fc4093c2",
        "name": "ut"
      },
      {
        "id": "60a178bddc8e485a2551a680",
        "name": "ex"
      },
      {
        "id": "60a178bd9d0108735c1b18a7",
        "name": "sint"
      },
      {
        "id": "60a178bdcd3a7f72e70b0a6b",
        "name": "ad"
      },
      {
        "id": "60a178bddb73d4400ac0f612",
        "name": "commodo"
      },
      {
        "id": "60a178bd1db8869a39cdca4b",
        "name": "ex"
      },
      {
        "id": "60a178bd567028a9eb07727e",
        "name": "cupidatat"
      }
    ],
    "link": null,
    "photo": "https://picsum.photos/500/500/?blur=2",
    "author": "Logan Knapp"
  }
]


